{
    "db_url": "mongodb+srv://admin:admin@semicolon.l5pln.mongodb.net/Aamtree",
    "jwt_token_secret": "seCr3t-U1-VIll^&@-enc-kEY",
    "refresh_jwt_token_secret": "R|-Fre_|-HSP:?-seCr3t-U1-VIll^&@-enc-kEY",
    "baseURL": "192.168.137.1",
    "Winston": {
        "level": "debug"
    },
    "nodeMail": {
        "mail": "",
        "password": "",
        "service": ""
    },
    "timeZone": "Asia/Calcutta",
    "aws": {
        "accessKeyId": "AKIARGEISSA23FMDUAHS",
        "secretAccessKey": "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",
        "region": "ap-south-1",
        "bucket_name": "aamtree",
        "bucket_path": "https://aamtree.s3.ap-south-1.amazonaws.com"
    },
    "fcmKey": "AAAAqidXGRg:APA91bGUx_p8rWKLt0RmS1KCDwpg1ixvuzY1CmDlM2HEh8IUnvL5_nNgQw1rIBNa_hWGXVE8heL-U138lrIEgrwqdTfziG0_SDIuPUjPt4rA1HUI6O4jAHohSh-kZPZsQeyyZoGV2_-z",
    "logo": "https://vpristine.s3.ap-south-1.amazonaws.com/PVR.png",
    "reset_url": "https://admin.vpristine.com/auth/registration?token="
}